mpe_trace.vcd
$date
     Oct 01, 2018       09:23:41
$end

$version
 SystemC 2.3.2-Accellera --- Sep 16 2018 19:48:52
$end

$timescale
     1 ns
$end

$scope module SystemC $end
$var real    1  aaaaa  data_in       $end
$var real    1  aaaab  data_out       $end
$var wire    1  aaaac  clear       $end
$var wire    1  aaaad  clk       $end
$upscope $end
$enddefinitions  $end

$comment
All initial values are dumped below at time 0 sec = 0 timescale units.
$end

$dumpvars
r2 aaaaa
r2 aaaab
1aaaac
1aaaad
$end

#5
0aaaad

#10
r12 aaaaa
r12 aaaab
0aaaac
1aaaad

#15
0aaaad

#20
r3 aaaaa
1aaaad

#25
0aaaad

#30
r9 aaaaa
1aaaad

#35
0aaaad

#40
r2 aaaaa
r2 aaaab
1aaaac
1aaaad

#45
0aaaad

#50
r7 aaaaa
r7 aaaab
0aaaac
1aaaad

#55
0aaaad

#60
r3 aaaaa
1aaaad

#65
0aaaad

#70
r9 aaaaa
r9 aaaab
1aaaad

#75
0aaaad

#80
r7 aaaaa
r7 aaaab
1aaaac
1aaaad

#85
0aaaad

#90
r0 aaaaa
0aaaac
1aaaad

#95
0aaaad

#100
r3 aaaaa
1aaaad

#105
0aaaad

#110
r8 aaaaa
r8 aaaab
1aaaad

