mpectrlr_trace.vcd
$date
     Oct 07, 2018       18:38:33
$end

$version
 SystemC 2.3.2-Accellera --- Sep 16 2018 19:48:52
$end

$timescale
     1 ns
$end

$scope module SystemC $end
$var wire    1  aaaaa  start       $end
$var wire    1  aaaab  clk       $end
$var wire   32  aaaac  addr_r [31:0]  $end
$var wire   32  aaaad  addr_w [31:0]  $end
$var wire    1  aaaae  clear       $end
$var wire    1  aaaaf  w_e       $end
$upscope $end
$enddefinitions  $end

$comment
All initial values are dumped below at time 0 sec = 0 timescale units.
$end

$dumpvars
0aaaaa
1aaaab
b0 aaaac
b0 aaaad
0aaaae
0aaaaf
$end

#5
0aaaab

#10
1aaaaa
1aaaab

#15
0aaaab

#20
1aaaab
b1 aaaac

#25
0aaaab

#30
1aaaab
b10 aaaac
1aaaae

#35
0aaaab

#40
1aaaab
b11 aaaac
0aaaae

#45
0aaaab

#50
1aaaab
b11001 aaaac

#55
0aaaab

#60
1aaaab
b11010 aaaac

#65
0aaaab

#70
1aaaab
b11011 aaaac

#75
0aaaab

#80
1aaaab
b110001 aaaac

#85
0aaaab

#90
1aaaab
b110010 aaaac

#95
0aaaab

#100
1aaaab
b110011 aaaac

#105
0aaaab

#110
1aaaab
b11 aaaac

#115
0aaaab

#120
1aaaab
b100 aaaac
b1 aaaad
1aaaae
1aaaaf

#125
0aaaab

#130
1aaaab
b101 aaaac
0aaaae
0aaaaf

#135
0aaaab

#140
1aaaab
b11011 aaaac

#145
0aaaab

#150
1aaaab
b11100 aaaac

#155
0aaaab

#160
1aaaab
b11101 aaaac

#165
0aaaab

#170
1aaaab
b110011 aaaac

#175
0aaaab

#180
1aaaab
b110100 aaaac

#185
0aaaab

#190
1aaaab
b110101 aaaac

#195
0aaaab

#200
1aaaab
b101 aaaac

#205
0aaaab

#210
1aaaab
b110 aaaac
b10 aaaad
1aaaae
1aaaaf

#215
0aaaab

#220
1aaaab
b111 aaaac
0aaaae
0aaaaf

#225
0aaaab

#230
1aaaab
b11101 aaaac

#235
0aaaab

#240
1aaaab
b11110 aaaac

#245
0aaaab

#250
1aaaab
b11111 aaaac

#255
0aaaab

#260
1aaaab
b110101 aaaac

#265
0aaaab

#270
1aaaab
b110110 aaaac

#275
0aaaab

#280
1aaaab
b110111 aaaac

#285
0aaaab

#290
1aaaab
b111 aaaac

#295
0aaaab

#300
1aaaab
b1000 aaaac
b11 aaaad
1aaaae
1aaaaf

#305
0aaaab

#310
1aaaab
b1001 aaaac
0aaaae
0aaaaf

#315
0aaaab

#320
1aaaab
b11111 aaaac

#325
0aaaab

#330
1aaaab
b100000 aaaac

#335
0aaaab

#340
1aaaab
b100001 aaaac

#345
0aaaab

#350
1aaaab
b110111 aaaac

#355
0aaaab

#360
1aaaab
b111000 aaaac

#365
0aaaab

#370
1aaaab
b111001 aaaac

#375
0aaaab

#380
1aaaab
b1001 aaaac

#385
0aaaab

#390
1aaaab
b1010 aaaac
b100 aaaad
1aaaae
1aaaaf

#395
0aaaab

#400
1aaaab
b1011 aaaac
0aaaae
0aaaaf

#405
0aaaab

#410
1aaaab
b100001 aaaac

#415
0aaaab

#420
1aaaab
b100010 aaaac

#425
0aaaab

#430
1aaaab
b100011 aaaac

#435
0aaaab

#440
1aaaab
b111001 aaaac

#445
0aaaab

#450
1aaaab
b111010 aaaac

#455
0aaaab

#460
1aaaab
b111011 aaaac

#465
0aaaab

#470
1aaaab
b1011 aaaac

#475
0aaaab

#480
1aaaab
b1100 aaaac
b101 aaaad
1aaaae
1aaaaf

#485
0aaaab

#490
1aaaab
b1101 aaaac
0aaaae
0aaaaf

#495
0aaaab

#500
1aaaab
b100011 aaaac

#505
0aaaab

#510
1aaaab
b100100 aaaac

#515
0aaaab

#520
1aaaab
b100101 aaaac

#525
0aaaab

#530
1aaaab
b111011 aaaac

#535
0aaaab

#540
1aaaab
b111100 aaaac

#545
0aaaab

#550
1aaaab
b111101 aaaac

#555
0aaaab

#560
1aaaab
b1101 aaaac

#565
0aaaab

#570
1aaaab
b1110 aaaac
b110 aaaad
1aaaae
1aaaaf

#575
0aaaab

#580
1aaaab
b1111 aaaac
0aaaae
0aaaaf

#585
0aaaab

#590
1aaaab
b100101 aaaac

#595
0aaaab

#600
1aaaab
b100110 aaaac

#605
0aaaab

#610
1aaaab
b100111 aaaac

#615
0aaaab

#620
1aaaab
b111101 aaaac

#625
0aaaab

#630
1aaaab
b111110 aaaac

#635
0aaaab

#640
1aaaab
b111111 aaaac

#645
0aaaab

#650
1aaaab
b1111 aaaac

#655
0aaaab

#660
1aaaab
b10000 aaaac
b111 aaaad
1aaaae
1aaaaf

#665
0aaaab

#670
1aaaab
b10001 aaaac
0aaaae
0aaaaf

#675
0aaaab

#680
1aaaab
b100111 aaaac

#685
0aaaab

#690
1aaaab
b101000 aaaac

#695
0aaaab

#700
1aaaab
b101001 aaaac

#705
0aaaab

#710
1aaaab
b111111 aaaac

#715
0aaaab

#720
1aaaab
b1000000 aaaac

#725
0aaaab

#730
1aaaab
b1000001 aaaac

#735
0aaaab

#740
1aaaab
b10001 aaaac

#745
0aaaab

#750
1aaaab
b10010 aaaac
b1000 aaaad
1aaaae
1aaaaf

#755
0aaaab

#760
1aaaab
b10011 aaaac
0aaaae
0aaaaf

#765
0aaaab

#770
1aaaab
b101001 aaaac

#775
0aaaab

#780
1aaaab
b101010 aaaac

#785
0aaaab

#790
1aaaab
b101011 aaaac

#795
0aaaab

#800
1aaaab
b1000001 aaaac

#805
0aaaab

#810
1aaaab
b1000010 aaaac

#815
0aaaab

#820
1aaaab
b1000011 aaaac

#825
0aaaab

#830
1aaaab
b10011 aaaac

#835
0aaaab

#840
1aaaab
b10100 aaaac
b1001 aaaad
1aaaae
1aaaaf

#845
0aaaab

#850
1aaaab
b10101 aaaac
0aaaae
0aaaaf

#855
0aaaab

#860
1aaaab
b101011 aaaac

#865
0aaaab

#870
1aaaab
b101100 aaaac

#875
0aaaab

#880
1aaaab
b101101 aaaac

#885
0aaaab

#890
1aaaab
b1000011 aaaac

#895
0aaaab

#900
1aaaab
b1000100 aaaac

#905
0aaaab

#910
1aaaab
b1000101 aaaac

#915
0aaaab

#920
1aaaab
b10101 aaaac

#925
0aaaab

#930
1aaaab
b10110 aaaac
b1010 aaaad
1aaaae
1aaaaf

#935
0aaaab

#940
1aaaab
b10111 aaaac
0aaaae
0aaaaf

#945
0aaaab

#950
1aaaab
b101101 aaaac

#955
0aaaab

#960
1aaaab
b101110 aaaac

#965
0aaaab

#970
1aaaab
b101111 aaaac

#975
0aaaab

#980
1aaaab
b1000101 aaaac

#985
0aaaab

#990
1aaaab
b1000110 aaaac

#995
0aaaab

#1000
1aaaab
b1000111 aaaac

#1005
0aaaab

#1010
1aaaab
b10111 aaaac

#1015
0aaaab

#1020
1aaaab
b11000 aaaac
b1011 aaaad
1aaaae
1aaaaf

#1025
0aaaab

#1030
1aaaab
b0 aaaac
0aaaae
0aaaaf

#1035
0aaaab

#1040
1aaaab
b101111 aaaac

#1045
0aaaab

#1050
1aaaab
b110000 aaaac

#1055
0aaaab

#1060
1aaaab
b0 aaaac

#1065
0aaaab

#1070
1aaaab
b1000111 aaaac

#1075
0aaaab

#1080
1aaaab
b1001000 aaaac

#1085
0aaaab

#1090
1aaaab
b0 aaaac

#1095
0aaaab

#1100
1aaaab
b110001 aaaac

#1105
0aaaab

#1110
1aaaab
b110010 aaaac
b1100 aaaad
1aaaae
1aaaaf

#1115
0aaaab

#1120
1aaaab
b110011 aaaac
0aaaae
0aaaaf

#1125
0aaaab

#1130
1aaaab
b1001001 aaaac

#1135
0aaaab

#1140
1aaaab
b1001010 aaaac

#1145
0aaaab

#1150
1aaaab
b1001011 aaaac

#1155
0aaaab

#1160
1aaaab
b1100001 aaaac

#1165
0aaaab

#1170
1aaaab
b1100010 aaaac

#1175
0aaaab

#1180
1aaaab
b1100011 aaaac

#1185
0aaaab

#1190
1aaaab
b110011 aaaac

#1195
0aaaab

#1200
1aaaab
b110100 aaaac
b1101 aaaad
1aaaae
1aaaaf

#1205
0aaaab

#1210
1aaaab
b110101 aaaac
0aaaae
0aaaaf

#1215
0aaaab

#1220
1aaaab
b1001011 aaaac

#1225
0aaaab

#1230
1aaaab
b1001100 aaaac

#1235
0aaaab

#1240
1aaaab
b1001101 aaaac

#1245
0aaaab

#1250
1aaaab
b1100011 aaaac

#1255
0aaaab

#1260
1aaaab
b1100100 aaaac

#1265
0aaaab

#1270
1aaaab
b1100101 aaaac

#1275
0aaaab

#1280
1aaaab
b110101 aaaac

#1285
0aaaab

#1290
1aaaab
b110110 aaaac
b1110 aaaad
1aaaae
1aaaaf

#1295
0aaaab

#1300
1aaaab
b110111 aaaac
0aaaae
0aaaaf

#1305
0aaaab

#1310
1aaaab
b1001101 aaaac

#1315
0aaaab

#1320
1aaaab
b1001110 aaaac

#1325
0aaaab

#1330
1aaaab
b1001111 aaaac

#1335
0aaaab

#1340
1aaaab
b1100101 aaaac

#1345
0aaaab

#1350
1aaaab
b1100110 aaaac

#1355
0aaaab

#1360
1aaaab
b1100111 aaaac

#1365
0aaaab

#1370
1aaaab
b110111 aaaac

#1375
0aaaab

#1380
1aaaab
b111000 aaaac
b1111 aaaad
1aaaae
1aaaaf

#1385
0aaaab

#1390
1aaaab
b111001 aaaac
0aaaae
0aaaaf

#1395
0aaaab

#1400
1aaaab
b1001111 aaaac

#1405
0aaaab

#1410
1aaaab
b1010000 aaaac

#1415
0aaaab

#1420
1aaaab
b1010001 aaaac

#1425
0aaaab

#1430
1aaaab
b1100111 aaaac

#1435
0aaaab

#1440
1aaaab
b1101000 aaaac

#1445
0aaaab

#1450
1aaaab
b1101001 aaaac

#1455
0aaaab

#1460
1aaaab
b111001 aaaac

#1465
0aaaab

#1470
1aaaab
b111010 aaaac
b10000 aaaad
1aaaae
1aaaaf

#1475
0aaaab

#1480
1aaaab
b111011 aaaac
0aaaae
0aaaaf

#1485
0aaaab

#1490
1aaaab
b1010001 aaaac

#1495
0aaaab

#1500
1aaaab
b1010010 aaaac

#1505
0aaaab

#1510
1aaaab
b1010011 aaaac

#1515
0aaaab

#1520
1aaaab
b1101001 aaaac

#1525
0aaaab

#1530
1aaaab
b1101010 aaaac

#1535
0aaaab

#1540
1aaaab
b1101011 aaaac

#1545
0aaaab

#1550
1aaaab
b111011 aaaac

#1555
0aaaab

#1560
1aaaab
b111100 aaaac
b10001 aaaad
1aaaae
1aaaaf

#1565
0aaaab

#1570
1aaaab
b111101 aaaac
0aaaae
0aaaaf

#1575
0aaaab

#1580
1aaaab
b1010011 aaaac

#1585
0aaaab

#1590
1aaaab
b1010100 aaaac

#1595
0aaaab

#1600
1aaaab
b1010101 aaaac

#1605
0aaaab

#1610
1aaaab
b1101011 aaaac

#1615
0aaaab

#1620
1aaaab
b1101100 aaaac

#1625
0aaaab

#1630
1aaaab
b1101101 aaaac

#1635
0aaaab

#1640
1aaaab
b111101 aaaac

#1645
0aaaab

#1650
1aaaab
b111110 aaaac
b10010 aaaad
1aaaae
1aaaaf

#1655
0aaaab

#1660
1aaaab
b111111 aaaac
0aaaae
0aaaaf

#1665
0aaaab

#1670
1aaaab
b1010101 aaaac

#1675
0aaaab

#1680
1aaaab
b1010110 aaaac

#1685
0aaaab

#1690
1aaaab
b1010111 aaaac

#1695
0aaaab

#1700
1aaaab
b1101101 aaaac

#1705
0aaaab

#1710
1aaaab
b1101110 aaaac

#1715
0aaaab

#1720
1aaaab
b1101111 aaaac

#1725
0aaaab

#1730
1aaaab
b111111 aaaac

#1735
0aaaab

#1740
1aaaab
b1000000 aaaac
b10011 aaaad
1aaaae
1aaaaf

#1745
0aaaab

#1750
1aaaab
b1000001 aaaac
0aaaae
0aaaaf

#1755
0aaaab

#1760
1aaaab
b1010111 aaaac

#1765
0aaaab

#1770
1aaaab
b1011000 aaaac

#1775
0aaaab

#1780
1aaaab
b1011001 aaaac

#1785
0aaaab

#1790
1aaaab
b1101111 aaaac

#1795
0aaaab

#1800
1aaaab
b1110000 aaaac

#1805
0aaaab

#1810
1aaaab
b1110001 aaaac

#1815
0aaaab

#1820
1aaaab
b1000001 aaaac

#1825
0aaaab

#1830
1aaaab
b1000010 aaaac
b10100 aaaad
1aaaae
1aaaaf

#1835
0aaaab

#1840
1aaaab
b1000011 aaaac
0aaaae
0aaaaf

#1845
0aaaab

#1850
1aaaab
b1011001 aaaac

#1855
0aaaab

#1860
1aaaab
b1011010 aaaac

#1865
0aaaab

#1870
1aaaab
b1011011 aaaac

#1875
0aaaab

#1880
1aaaab
b1110001 aaaac

#1885
0aaaab

#1890
1aaaab
b1110010 aaaac

#1895
0aaaab

#1900
1aaaab
b1110011 aaaac

#1905
0aaaab

#1910
1aaaab
b1000011 aaaac

#1915
0aaaab

#1920
1aaaab
b1000100 aaaac
b10101 aaaad
1aaaae
1aaaaf

#1925
0aaaab

#1930
1aaaab
b1000101 aaaac
0aaaae
0aaaaf

#1935
0aaaab

#1940
1aaaab
b1011011 aaaac

#1945
0aaaab

#1950
1aaaab
b1011100 aaaac

#1955
0aaaab

#1960
1aaaab
b1011101 aaaac

#1965
0aaaab

#1970
1aaaab
b1110011 aaaac

#1975
0aaaab

#1980
1aaaab
b1110100 aaaac

#1985
0aaaab

#1990
1aaaab
b1110101 aaaac

#1995
0aaaab

#2000
1aaaab
b1000101 aaaac

#2005
0aaaab

#2010
1aaaab
b1000110 aaaac
b10110 aaaad
1aaaae
1aaaaf

#2015
0aaaab

#2020
1aaaab
b1000111 aaaac
0aaaae
0aaaaf

#2025
0aaaab

#2030
1aaaab
b1011101 aaaac

#2035
0aaaab

#2040
1aaaab
b1011110 aaaac

#2045
0aaaab

#2050
1aaaab
b1011111 aaaac

#2055
0aaaab

#2060
1aaaab
b1110101 aaaac

#2065
0aaaab

#2070
1aaaab
b1110110 aaaac

#2075
0aaaab

#2080
1aaaab
b1110111 aaaac

#2085
0aaaab

#2090
1aaaab
b1000111 aaaac

#2095
0aaaab

#2100
1aaaab
b1001000 aaaac
b10111 aaaad
1aaaae
1aaaaf

#2105
0aaaab

#2110
1aaaab
b0 aaaac
0aaaae
0aaaaf

#2115
0aaaab

#2120
1aaaab
b1011111 aaaac

#2125
0aaaab

#2130
1aaaab
b1100000 aaaac

#2135
0aaaab

#2140
1aaaab
b0 aaaac

#2145
0aaaab

#2150
1aaaab
b1110111 aaaac

#2155
0aaaab

#2160
1aaaab
b1111000 aaaac

#2165
0aaaab

#2170
1aaaab
b0 aaaac

#2175
0aaaab

#2180
1aaaab
b1100001 aaaac

#2185
0aaaab

#2190
1aaaab
b1100010 aaaac
b11000 aaaad
1aaaae
1aaaaf

#2195
0aaaab

#2200
1aaaab
b1100011 aaaac
0aaaae
0aaaaf

#2205
0aaaab

#2210
1aaaab
b1111001 aaaac

#2215
0aaaab

#2220
1aaaab
b1111010 aaaac

#2225
0aaaab

#2230
1aaaab
b1111011 aaaac

#2235
0aaaab

#2240
1aaaab
b10010001 aaaac

#2245
0aaaab

#2250
1aaaab
b10010010 aaaac

#2255
0aaaab

#2260
1aaaab
b10010011 aaaac

#2265
0aaaab

#2270
1aaaab
b1100011 aaaac

#2275
0aaaab

#2280
1aaaab
b1100100 aaaac
b11001 aaaad
1aaaae
1aaaaf

#2285
0aaaab

#2290
1aaaab
b1100101 aaaac
0aaaae
0aaaaf

#2295
0aaaab

#2300
1aaaab
b1111011 aaaac

#2305
0aaaab

#2310
1aaaab
b1111100 aaaac

#2315
0aaaab

#2320
1aaaab
b1111101 aaaac

#2325
0aaaab

#2330
1aaaab
b10010011 aaaac

#2335
0aaaab

#2340
1aaaab
b10010100 aaaac

#2345
0aaaab

#2350
1aaaab
b10010101 aaaac

#2355
0aaaab

#2360
1aaaab
b1100101 aaaac

#2365
0aaaab

#2370
1aaaab
b1100110 aaaac
b11010 aaaad
1aaaae
1aaaaf

#2375
0aaaab

#2380
1aaaab
b1100111 aaaac
0aaaae
0aaaaf

#2385
0aaaab

#2390
1aaaab
b1111101 aaaac

#2395
0aaaab

#2400
1aaaab
b1111110 aaaac

#2405
0aaaab

#2410
1aaaab
b1111111 aaaac

#2415
0aaaab

#2420
1aaaab
b10010101 aaaac

#2425
0aaaab

#2430
1aaaab
b10010110 aaaac

#2435
0aaaab

#2440
1aaaab
b10010111 aaaac

#2445
0aaaab

#2450
1aaaab
b1100111 aaaac

#2455
0aaaab

#2460
1aaaab
b1101000 aaaac
b11011 aaaad
1aaaae
1aaaaf

#2465
0aaaab

#2470
1aaaab
b1101001 aaaac
0aaaae
0aaaaf

#2475
0aaaab

#2480
1aaaab
b1111111 aaaac

#2485
0aaaab

#2490
1aaaab
b10000000 aaaac

#2495
0aaaab

#2500
1aaaab
b10000001 aaaac

#2505
0aaaab

#2510
1aaaab
b10010111 aaaac

#2515
0aaaab

#2520
1aaaab
b10011000 aaaac

#2525
0aaaab

#2530
1aaaab
b10011001 aaaac

#2535
0aaaab

#2540
1aaaab
b1101001 aaaac

#2545
0aaaab

#2550
1aaaab
b1101010 aaaac
b11100 aaaad
1aaaae
1aaaaf

#2555
0aaaab

#2560
1aaaab
b1101011 aaaac
0aaaae
0aaaaf

#2565
0aaaab

#2570
1aaaab
b10000001 aaaac

#2575
0aaaab

#2580
1aaaab
b10000010 aaaac

#2585
0aaaab

#2590
1aaaab
b10000011 aaaac

#2595
0aaaab

#2600
1aaaab
b10011001 aaaac

#2605
0aaaab

#2610
1aaaab
b10011010 aaaac

#2615
0aaaab

#2620
1aaaab
b10011011 aaaac

#2625
0aaaab

#2630
1aaaab
b1101011 aaaac

#2635
0aaaab

#2640
1aaaab
b1101100 aaaac
b11101 aaaad
1aaaae
1aaaaf

#2645
0aaaab

#2650
1aaaab
b1101101 aaaac
0aaaae
0aaaaf

#2655
0aaaab

#2660
1aaaab
b10000011 aaaac

#2665
0aaaab

#2670
1aaaab
b10000100 aaaac

#2675
0aaaab

#2680
1aaaab
b10000101 aaaac

#2685
0aaaab

#2690
1aaaab
b10011011 aaaac

#2695
0aaaab

#2700
1aaaab
b10011100 aaaac

#2705
0aaaab

#2710
1aaaab
b10011101 aaaac

#2715
0aaaab

#2720
1aaaab
b1101101 aaaac

#2725
0aaaab

#2730
1aaaab
b1101110 aaaac
b11110 aaaad
1aaaae
1aaaaf

#2735
0aaaab

#2740
1aaaab
b1101111 aaaac
0aaaae
0aaaaf

#2745
0aaaab

#2750
1aaaab
b10000101 aaaac

#2755
0aaaab

#2760
1aaaab
b10000110 aaaac

#2765
0aaaab

#2770
1aaaab
b10000111 aaaac

#2775
0aaaab

#2780
1aaaab
b10011101 aaaac

#2785
0aaaab

#2790
1aaaab
b10011110 aaaac

#2795
0aaaab

#2800
1aaaab
b10011111 aaaac

#2805
0aaaab

#2810
1aaaab
b1101111 aaaac

#2815
0aaaab

#2820
1aaaab
b1110000 aaaac
b11111 aaaad
1aaaae
1aaaaf

#2825
0aaaab

#2830
1aaaab
b1110001 aaaac
0aaaae
0aaaaf

#2835
0aaaab

#2840
1aaaab
b10000111 aaaac

#2845
0aaaab

#2850
1aaaab
b10001000 aaaac

#2855
0aaaab

#2860
1aaaab
b10001001 aaaac

#2865
0aaaab

#2870
1aaaab
b10011111 aaaac

#2875
0aaaab

#2880
1aaaab
b10100000 aaaac

#2885
0aaaab

#2890
1aaaab
b10100001 aaaac

#2895
0aaaab

#2900
1aaaab
b1110001 aaaac

#2905
0aaaab

#2910
1aaaab
b1110010 aaaac
b100000 aaaad
1aaaae
1aaaaf

#2915
0aaaab

#2920
1aaaab
b1110011 aaaac
0aaaae
0aaaaf

#2925
0aaaab

#2930
1aaaab
b10001001 aaaac

#2935
0aaaab

#2940
1aaaab
b10001010 aaaac

#2945
0aaaab

#2950
1aaaab
b10001011 aaaac

#2955
0aaaab

#2960
1aaaab
b10100001 aaaac

#2965
0aaaab

#2970
1aaaab
b10100010 aaaac

#2975
0aaaab

#2980
1aaaab
b10100011 aaaac

#2985
0aaaab

#2990
1aaaab
b1110011 aaaac

#2995
0aaaab

#3000
1aaaab
b1110100 aaaac
b100001 aaaad
1aaaae
1aaaaf

#3005
0aaaab

#3010
1aaaab
b1110101 aaaac
0aaaae
0aaaaf

#3015
0aaaab

#3020
1aaaab
b10001011 aaaac

#3025
0aaaab

#3030
1aaaab
b10001100 aaaac

#3035
0aaaab

#3040
1aaaab
b10001101 aaaac

#3045
0aaaab

#3050
1aaaab
b10100011 aaaac

#3055
0aaaab

#3060
1aaaab
b10100100 aaaac

#3065
0aaaab

#3070
1aaaab
b10100101 aaaac

#3075
0aaaab

#3080
1aaaab
b1110101 aaaac

#3085
0aaaab

#3090
1aaaab
b1110110 aaaac
b100010 aaaad
1aaaae
1aaaaf

#3095
0aaaab

#3100
1aaaab
b1110111 aaaac
0aaaae
0aaaaf

#3105
0aaaab

#3110
1aaaab
b10001101 aaaac

#3115
0aaaab

#3120
1aaaab
b10001110 aaaac

#3125
0aaaab

#3130
1aaaab
b10001111 aaaac

#3135
0aaaab

#3140
1aaaab
b10100101 aaaac

#3145
0aaaab

#3150
1aaaab
b10100110 aaaac

#3155
0aaaab

#3160
1aaaab
b10100111 aaaac

#3165
0aaaab

#3170
1aaaab
b1110111 aaaac

#3175
0aaaab

#3180
1aaaab
b1111000 aaaac
b100011 aaaad
1aaaae
1aaaaf

#3185
0aaaab

#3190
1aaaab
b0 aaaac
0aaaae
0aaaaf

#3195
0aaaab

#3200
1aaaab
b10001111 aaaac

#3205
0aaaab

#3210
1aaaab
b10010000 aaaac

#3215
0aaaab

#3220
1aaaab
b0 aaaac

#3225
0aaaab

#3230
1aaaab
b10100111 aaaac

#3235
0aaaab

#3240
1aaaab
b10101000 aaaac

#3245
0aaaab

#3250
1aaaab
b0 aaaac

#3255
0aaaab

#3260
1aaaab
b10010001 aaaac

#3265
0aaaab

#3270
1aaaab
b10010010 aaaac
b100100 aaaad
1aaaae
1aaaaf

#3275
0aaaab

#3280
1aaaab
b10010011 aaaac
0aaaae
0aaaaf

#3285
0aaaab

#3290
1aaaab
b10101001 aaaac

#3295
0aaaab

#3300
1aaaab
b10101010 aaaac

#3305
0aaaab

#3310
1aaaab
b10101011 aaaac

#3315
0aaaab

#3320
1aaaab
b11000001 aaaac

#3325
0aaaab

#3330
1aaaab
b11000010 aaaac

#3335
0aaaab

#3340
1aaaab
b11000011 aaaac

#3345
0aaaab

#3350
1aaaab
b10010011 aaaac

#3355
0aaaab

#3360
1aaaab
b10010100 aaaac
b100101 aaaad
1aaaae
1aaaaf

#3365
0aaaab

#3370
1aaaab
b10010101 aaaac
0aaaae
0aaaaf

#3375
0aaaab

#3380
1aaaab
b10101011 aaaac

#3385
0aaaab

#3390
1aaaab
b10101100 aaaac

#3395
0aaaab

#3400
1aaaab
b10101101 aaaac

#3405
0aaaab

#3410
1aaaab
b11000011 aaaac

#3415
0aaaab

#3420
1aaaab
b11000100 aaaac

#3425
0aaaab

#3430
1aaaab
b11000101 aaaac

#3435
0aaaab

#3440
1aaaab
b10010101 aaaac

#3445
0aaaab

#3450
1aaaab
b10010110 aaaac
b100110 aaaad
1aaaae
1aaaaf

#3455
0aaaab

#3460
1aaaab
b10010111 aaaac
0aaaae
0aaaaf

#3465
0aaaab

#3470
1aaaab
b10101101 aaaac

#3475
0aaaab

#3480
1aaaab
b10101110 aaaac

#3485
0aaaab

#3490
1aaaab
b10101111 aaaac

#3495
0aaaab

#3500
1aaaab
b11000101 aaaac

#3505
0aaaab

#3510
1aaaab
b11000110 aaaac

#3515
0aaaab

#3520
1aaaab
b11000111 aaaac

#3525
0aaaab

#3530
1aaaab
b10010111 aaaac

#3535
0aaaab

#3540
1aaaab
b10011000 aaaac
b100111 aaaad
1aaaae
1aaaaf

#3545
0aaaab

#3550
1aaaab
b10011001 aaaac
0aaaae
0aaaaf

#3555
0aaaab

#3560
1aaaab
b10101111 aaaac

#3565
0aaaab

#3570
1aaaab
b10110000 aaaac

#3575
0aaaab

#3580
1aaaab
b10110001 aaaac

#3585
0aaaab

#3590
1aaaab
b11000111 aaaac

#3595
0aaaab

#3600
1aaaab
b11001000 aaaac

#3605
0aaaab

#3610
1aaaab
b11001001 aaaac

#3615
0aaaab

#3620
1aaaab
b10011001 aaaac

#3625
0aaaab

#3630
1aaaab
b10011010 aaaac
b101000 aaaad
1aaaae
1aaaaf

#3635
0aaaab

#3640
1aaaab
b10011011 aaaac
0aaaae
0aaaaf

#3645
0aaaab

#3650
1aaaab
b10110001 aaaac

#3655
0aaaab

#3660
1aaaab
b10110010 aaaac

#3665
0aaaab

#3670
1aaaab
b10110011 aaaac

#3675
0aaaab

#3680
1aaaab
b11001001 aaaac

#3685
0aaaab

#3690
1aaaab
b11001010 aaaac

#3695
0aaaab

#3700
1aaaab
b11001011 aaaac

#3705
0aaaab

#3710
1aaaab
b10011011 aaaac

#3715
0aaaab

#3720
1aaaab
b10011100 aaaac
b101001 aaaad
1aaaae
1aaaaf

#3725
0aaaab

#3730
1aaaab
b10011101 aaaac
0aaaae
0aaaaf

#3735
0aaaab

#3740
1aaaab
b10110011 aaaac

#3745
0aaaab

#3750
1aaaab
b10110100 aaaac

#3755
0aaaab

#3760
1aaaab
b10110101 aaaac

#3765
0aaaab

#3770
1aaaab
b11001011 aaaac

#3775
0aaaab

#3780
1aaaab
b11001100 aaaac

#3785
0aaaab

#3790
1aaaab
b11001101 aaaac

#3795
0aaaab

#3800
1aaaab
b10011101 aaaac

#3805
0aaaab

#3810
1aaaab
b10011110 aaaac
b101010 aaaad
1aaaae
1aaaaf

#3815
0aaaab

#3820
1aaaab
b10011111 aaaac
0aaaae
0aaaaf

#3825
0aaaab

#3830
1aaaab
b10110101 aaaac

#3835
0aaaab

#3840
1aaaab
b10110110 aaaac

#3845
0aaaab

#3850
1aaaab
b10110111 aaaac

#3855
0aaaab

#3860
1aaaab
b11001101 aaaac

#3865
0aaaab

#3870
1aaaab
b11001110 aaaac

#3875
0aaaab

#3880
1aaaab
b11001111 aaaac

#3885
0aaaab

#3890
1aaaab
b10011111 aaaac

#3895
0aaaab

#3900
1aaaab
b10100000 aaaac
b101011 aaaad
1aaaae
1aaaaf

#3905
0aaaab

#3910
1aaaab
b10100001 aaaac
0aaaae
0aaaaf

#3915
0aaaab

#3920
1aaaab
b10110111 aaaac

#3925
0aaaab

#3930
1aaaab
b10111000 aaaac

#3935
0aaaab

#3940
1aaaab
b10111001 aaaac

#3945
0aaaab

#3950
1aaaab
b11001111 aaaac

#3955
0aaaab

#3960
1aaaab
b11010000 aaaac

#3965
0aaaab

#3970
1aaaab
b11010001 aaaac

#3975
0aaaab

#3980
1aaaab
b10100001 aaaac

#3985
0aaaab

#3990
1aaaab
b10100010 aaaac
b101100 aaaad
1aaaae
1aaaaf

#3995
0aaaab

#4000
1aaaab
b10100011 aaaac
0aaaae
0aaaaf

#4005
0aaaab

#4010
1aaaab
b10111001 aaaac

#4015
0aaaab

#4020
1aaaab
b10111010 aaaac

#4025
0aaaab

#4030
1aaaab
b10111011 aaaac

#4035
0aaaab

#4040
1aaaab
b11010001 aaaac

#4045
0aaaab

#4050
1aaaab
b11010010 aaaac

#4055
0aaaab

#4060
1aaaab
b11010011 aaaac

#4065
0aaaab

#4070
1aaaab
b10100011 aaaac

#4075
0aaaab

#4080
1aaaab
b10100100 aaaac
b101101 aaaad
1aaaae
1aaaaf

#4085
0aaaab

#4090
1aaaab
b10100101 aaaac
0aaaae
0aaaaf

#4095
0aaaab

#4100
1aaaab
b10111011 aaaac

#4105
0aaaab

#4110
1aaaab
b10111100 aaaac

#4115
0aaaab

#4120
1aaaab
b10111101 aaaac

#4125
0aaaab

#4130
1aaaab
b11010011 aaaac

#4135
0aaaab

#4140
1aaaab
b11010100 aaaac

#4145
0aaaab

#4150
1aaaab
b11010101 aaaac

#4155
0aaaab

#4160
1aaaab
b10100101 aaaac

#4165
0aaaab

#4170
1aaaab
b10100110 aaaac
b101110 aaaad
1aaaae
1aaaaf

#4175
0aaaab

#4180
1aaaab
b10100111 aaaac
0aaaae
0aaaaf

#4185
0aaaab

#4190
1aaaab
b10111101 aaaac

#4195
0aaaab

#4200
1aaaab
b10111110 aaaac

#4205
0aaaab

#4210
1aaaab
b10111111 aaaac

#4215
0aaaab

#4220
1aaaab
b11010101 aaaac

#4225
0aaaab

#4230
1aaaab
b11010110 aaaac

#4235
0aaaab

#4240
1aaaab
b11010111 aaaac

#4245
0aaaab

#4250
1aaaab
b10100111 aaaac

#4255
0aaaab

#4260
1aaaab
b10101000 aaaac
b101111 aaaad
1aaaae
1aaaaf

#4265
0aaaab

#4270
1aaaab
b0 aaaac
0aaaae
0aaaaf

#4275
0aaaab

#4280
1aaaab
b10111111 aaaac

#4285
0aaaab

#4290
1aaaab
b11000000 aaaac

#4295
0aaaab

#4300
1aaaab
b0 aaaac

#4305
0aaaab

#4310
1aaaab
b11010111 aaaac

#4315
0aaaab

#4320
1aaaab
b11011000 aaaac

#4325
0aaaab

#4330
1aaaab
b0 aaaac

#4335
0aaaab

#4340
1aaaab
b11000001 aaaac

#4345
0aaaab

#4350
1aaaab
b11000010 aaaac
b110000 aaaad
1aaaae
1aaaaf

#4355
0aaaab

#4360
1aaaab
b11000011 aaaac
0aaaae
0aaaaf

#4365
0aaaab

#4370
1aaaab
b11011001 aaaac

#4375
0aaaab

#4380
1aaaab
b11011010 aaaac

#4385
0aaaab

#4390
1aaaab
b11011011 aaaac

#4395
0aaaab

#4400
1aaaab
b11110001 aaaac

#4405
0aaaab

#4410
1aaaab
b11110010 aaaac

#4415
0aaaab

#4420
1aaaab
b11110011 aaaac

#4425
0aaaab

#4430
1aaaab
b11000011 aaaac

#4435
0aaaab

